{
    "vim.useCtrlKeys": false,
    "vim.handleKeys": {
        "<C-k>": true,
        "<C-i>": true,
    },
    "vim.overrideCopy": false,
    "vim.normalModeKeyBindingsNonRecursive": [ 
        // ijkl movement
        { "before": ["k"], "after": ["j"] },
        { "before": ["i"], "after": ["k"] },
        { "before": ["j"], "after": ["h"] },

        // IJ scrolling
        { "before": ["I"], "after": ["3", "<C-y>"] },
        { "before": ["K"], "after": ["3", "<C-e>"] },

        // Ctrl+ij move line
        { "before": ["<C-i>"], "commands": ["editor.action.moveLinesUpAction"] },
        { "before": ["<C-k>"], "commands": ["editor.action.moveLinesDownAction"] },

        // JL movement
        { "before": ["J"], "after": ["^"]},
        { "before": ["L"], "after": ["$"]},

        // a; insert/append
        { "before": ["a"], "after": ["i"] },
        { "before": ["A"], "after": ["I"] },
        { "before": [";"], "after": ["a"] },
        { "before": [":"], "after": ["A"] },

        // h insert lines
        { "before": ["h"], "commands": ["editor.action.insertLineAfter"] },
        { "before": ["H"], "commands": ["editor.action.insertLineBefore"] },

        { "before": ["<space>", "d"], "commands": ["editor.action.duplicateSelection"]},
        { "before": ["<space>", "c"], "commands": ["editor.action.addCommentLine"]},
        { "before": ["<space>", "u"], "commands": ["editor.action.removeCommentLine"]},
        { "before": ["<space>", "r"], "commands": ["editor.action.rename"]},
        { "before": ["<space>", "f"], "commands": ["editor.action.formatDocument"]},
        { "before": ["<space>", "j"], "commands": ["editor.action.joinLines"]},
        { "before": ["<space>", "w"], "commands": ["workbench.action.closeActiveEditor"]},
        { "before": ["<space>", ";"], "after": [ "a", "_", "<Escape>", "r" ] },
        { "before": ["<space>", "a"], "after": [ "i", "_", "<Escape>", "r" ] },

        { "before": ["c", "o"], "after": ["c", "a"] },
        { "before": ["d", "o"], "after": ["d", "a"] },

        { "before": ["<Tab>"], "commands": ["editor.action.indentLines"] },
        { "before": ["<Shift+Tab>"], "commands": ["editor.action.outdentLines"] },
    ],
    "vim.visualModeKeyBindingsNonRecursive": [
        // ijkl movement
        { "before": ["k"], "after": ["j"] },
        { "before": ["i"], "after": ["k"] },
        { "before": ["j"], "after": ["h"] },
        
        // IJ scrolling
        { "before": ["I"], "after": ["3", "<C-y>"] },
        { "before": ["K"], "after": ["3", "<C-e>"] },
        
        // Ctrl+ij move line
        { "before": ["<C-i>"], "commands": ["editor.action.moveLinesUpAction"] },
        { "before": ["<C-k>"], "commands": ["editor.action.moveLinesDownAction"] },
        
        // JL movement
        { "before": ["J"], "after": ["^"]},
        { "before": ["L"], "after": ["$"]},
        
        // tab fix
        { "before": ["<space>", "d"], "commands": ["editor.action.duplicateSelection"]},
        { "before": ["<space>", "c"], "commands": ["editor.action.addCommentLine"]},
        { "before": ["<space>", "u"], "commands": ["editor.action.removeCommentLine"]},
        { "before": ["<space>", "f"], "commands": ["editor.action.formatSelection"]},
        { "before": ["<space>", "j"], "commands": ["editor.action.joinLines"]},
        
        { "before": ["y"], "commands":["editor.action.clipboardCopyAction"]},
        
        { "before": ["<Tab>"], "commands": ["editor.action.indentLines"] },
        { "before": ["<Shift+Tab>"], "commands": ["editor.action.outdentLines"] },
    ]
}